{
    "video_source": [
        {
            "id": "camera1",
            "url": "rtsp://10.210.1.100:554/user=admin_password=tlJwpbo6_channel=1_stream=0.sdp?real_stream",
            "tcp": true
        },
        {
            "id": "camera2",
            "url": "rtsp://10.210.1.102:554/user=admin_password=tlJwpbo6_channel=1_stream=0.sdp?real_stream",
            "tcp": true
        },
        {
            "id": "camera3",
            "url": "rtsp://10.210.1.101:554/user=admin_password=tlJwpbo6_channel=1_stream=0.sdp?real_stream",
            "tcp": true
        },
        {
            "id": "camera4",
            "url": "rtsp://10.210.1.103:554/user=admin_password=tlJwpbo6_channel=1_stream=0.sdp?real_stream",
            "tcp": true
        }
    ],
    "video_mixer": [
        {
            "id": "mixer_1",
            "w": 1280,
            "h": 720,
            "sources": [
                {
                    "source": "camera4",
                    "brightness": 128,
                    "contrast": 128,
                    "lens": 0,
                    "scene": [
                        {
                            "x": 300,
                            "y": 270
                        },
                        {
                            "x": 2230,
                            "y": 270
                        },
                        {
                            "x": 2230,
                            "y": 1370
                        },
                        {
                            "x": 300,
                            "y": 1370
                        }
                    ]
                },
                {
                    "source": "camera2",
                    "brightness": 128,
                    "contrast": 128,
                    "lens": 0,
                    "scene": [
                        {
                            "x": 400,
                            "y": -600
                        },
                        {
                            "x": 2320,
                            "y": -600
                        },
                        {
                            "x": 2320,
                            "y": 480
                        },
                        {
                            "x": 350,
                            "y": 480
                        }
                    ]
                },
                {
                    "source": "camera1",
                    "brightness": 128,
                    "contrast": 128,
                    "lens": 0,
                    "scene": [
                        {
                            "x": -1000,
                            "y": -600
                        },
                        {
                            "x": 920,
                            "y": -600
                        },
                        {
                            "x": 920,
                            "y": 480
                        },
                        {
                            "x": -1000,
                            "y": 480
                        }
                    ]
                },
                {
                    "source": "camera3",
                    "brightness": 128,
                    "contrast": 128,
                    "lens": 0,
                    "scene": [
                        {
                            "x": -985,
                            "y": 355
                        },
                        {
                            "x": 915,
                            "y": 355
                        },
                        {
                            "x": 915,
                            "y": 1435
                        },
                        {
                            "x": -985,
                            "y": 1435
                        }
                    ]
                }
            ]
        },


        {
            "id": "mixer_2",
            "w": 1280,
            "h": 720,
            "sources": [
                {
                    "source": "camera2",
                    "brightness": 128,
                    "contrast": 128,
                    "lens": 0,
                    "scene": [
                        {
                            "x": 400,
                            "y": 0
                        },
                        {
                            "x": 2320,
                            "y": 0
                        },
                        {
                            "x": 2320,
                            "y": 1080
                        },
                        {
                            "x": 350,
                            "y": 1080
                        }
                    ]
                },
                {
                    "source": "camera1",
                    "brightness": 128,
                    "contrast": 128,
                    "lens": 0,
                    "scene": [
                        {
                            "x": -1000,
                            "y": 0
                        },
                        {
                            "x": 920,
                            "y": 0
                        },
                        {
                            "x": 920,
                            "y": 1080
                        },
                        {
                            "x": -1000,
                            "y": 1080
                        }
                    ]
                }
            ]
        },


        {
            "id": "mixer_3",
            "w": 1280,
            "h": 720,
            "sources": [
                {
                    "source": "camera1",
                    "brightness": 128,
                    "contrast": 128,
                    "lens": 0,
                    "scene": [
                        {
                            "x": 0,
                            "y": -600
                        },
                        {
                            "x": 1920,
                            "y": -600
                        },
                        {
                            "x": 1920,
                            "y": 480
                        },
                        {
                            "x": 0,
                            "y": 480
                        }
                    ]
                },
                {
                    "source": "camera3",
                    "brightness": 128,
                    "contrast": 128,
                    "lens": 0,
                    "scene": [
                        {
                            "x": 15,
                            "y": 355
                        },
                        {
                            "x": 1915,
                            "y": 355
                        },
                        {
                            "x": 1915,
                            "y": 1435
                        },
                        {
                            "x": 15,
                            "y": 1435
                        }
                    ]
                }
            ]
        },
        {
            "id": "mixer_4",
            "w": 1280,
            "h": 720,
            "sources": [
                {
                    "source": "camera4",
                    "brightness": 128,
                    "contrast": 128,
                    "lens": 0,
                    "scene": [
                        {
                            "x": -700,
                            "y": 270
                        },
                        {
                            "x": 1230,
                            "y": 270
                        },
                        {
                            "x": 1230,
                            "y": 1370
                        },
                        {
                            "x": -700,
                            "y": 1370
                        }
                    ]
                },
                {
                    "source": "camera2",
                    "brightness": 128,
                    "contrast": 128,
                    "lens": 0,
                    "scene": [
                        {
                            "x": -600,
                            "y": -600
                        },
                        {
                            "x": 1320,
                            "y": -600
                        },
                        {
                            "x": 1320,
                            "y": 480
                        },
                        {
                            "x": -650,
                            "y": 480
                        }
                    ]
                }
            ]
        },
        {
            "id": "mixer_5",
            "w": 1280,
            "h": 720,
            "sources": [
                {
                    "source": "camera4",
                    "brightness": 128,
                    "contrast": 128,
                    "lens": 0,
                    "scene": [
                        {
                            "x": 300,
                            "y": -130
                        },
                        {
                            "x": 2230,
                            "y": -130
                        },
                        {
                            "x": 2230,
                            "y": 970
                        },
                        {
                            "x": 300,
                            "y": 970
                        }
                    ]
                },
                {
                    "source": "camera3",
                    "brightness": 128,
                    "contrast": 128,
                    "lens": 0,
                    "scene": [
                        {
                            "x": -985,
                            "y": -45
                        },
                        {
                            "x": 915,
                            "y": -45
                        },
                        {
                            "x": 915,
                            "y": 1035
                        },
                        {
                            "x": -985,
                            "y": 1035
                        }
                    ]
                }
            ]
        }
    ],
    "video_output" : [
	{
            "rtsp_url":"1",
            "source":"mixer_1",
            "w":1920,
            "h":1080,
            "min_fps":10,
            "max_fps":20,
            "min_gop":10,
            "max_gop":20,
            "max_bitrate":4000
        },
        {
            "rtsp_url":"2",
            "source":"mixer_2",
            "w":1280,
            "h":720,
            "min_fps":10,
            "max_fps":20,
            "min_gop":10,
            "max_gop":20,
            "max_bitrate":4000
        },
        {
            "rtsp_url":"3",
            "source":"mixer_3",
            "w":1280,
            "h":720,
            "min_fps":10,
            "max_fps":20,
            "min_gop":10,
            "max_gop":20,
            "max_bitrate":4000
        },
        {
            "rtsp_url":"4",
            "source":"mixer_4",
            "w":1280,
            "h":720,
            "min_fps":10,
            "max_fps":20,
            "min_gop":10,
            "max_gop":20,
            "max_bitrate":4000
        },
        {
            "rtsp_url":"5",
            "source":"mixer_5",
            "w":1280,
            "h":720,
            "min_fps":10,
            "max_fps":20,
            "min_gop":10,
            "max_gop":20,
            "max_bitrate":4000
        }
    ]
}